
[
    {
        "id_python": -1,
        "ts": -1,
        "copies_by_node": [0, 0, 0],
        "actions": [],
        "children": [1],
        "solved_copies": 0,
        "id_dtnsim": 0
    },
    {
        "id_python": 18,
        "ts": 0,
        "copies_by_node": [2, 0, 0],
        "actions": [
            {
                "copies": 1,
                "name": "next",
                "contact_ids": [],
                "source_node": 1
            },
            {
                "copies": 1,
                "name": "send_0_1_0_send_1_2_0",
                "contact_ids": [1, 2],
                "source_node": 1
            }
        ],
        "children": [2, 3, 4],
        "solved_copies": 1
    },
    {
        "id_python": 37,
        "ts": 1,
        "copies_by_node": [1, 0, 1],
        "actions": [],
        "children": [],
        "solved_copies": 0
    },
    {
        "id_python": 39,
        "ts": 1,
        "copies_by_node": [1, 1, 0],
        "actions": [
            {
                "copies": 1,
                "name": "next",
                "contact_ids": [],
                "source_node": 1
            },
            {
                "copies": 1,
                "name": "send_1_2_1",
                "contact_ids": [3],
                "source_node": 2
            }
        ],
        "children": [5, 6],
        "solved_copies": 1
    },
    {
        "id_python": 45,
        "ts": 1,
        "copies_by_node": [2, 0, 0],
        "actions": [
            {
                "copies": 2,
                "name": "next",
                "contact_ids": [],
                "source_node": 1
            }
        ],
        "children": [7],
        "solved_copies": 2
    },
    {
        "id_python": 64,
        "ts": 2,
        "copies_by_node": [1, 0, 1],
        "actions": [],
        "children": [],
        "solved_copies": 0
    },
    {
        "id_python": 66,
        "ts": 2,
        "copies_by_node": [1, 1, 0],
        "actions": [
            {
                "copies": 1,
                "name": "send_0_2_2",
                "contact_ids": [4],
                "source_node": 1
            },
            {
                "copies": 1,
                "name": "send_1_2_2",
                "contact_ids": [5],
                "source_node": 2
            }
        ],
        "children": [8, 9, 10, 11],
        "solved_copies": 0
    },
    {
        "id_python": 72,
        "ts": 2,
        "copies_by_node": [2, 0, 0],
        "actions": [
            {
                "copies": 1,
                "name": "next",
                "contact_ids": [],
                "source_node": 1
            },
            {
                "copies": 1,
                "name": "send_0_2_2",
                "contact_ids": [4],
                "source_node": 1
            }
        ],
        "children": [10, 11],
        "solved_copies": 1
    },
    {
        "id_python": 83,
        "ts": 3,
        "copies_by_node": [0, 0, 2],
        "actions": [],
        "children": [],
        "solved_copies": 0
    },
    {
        "id_python": 85,
        "ts": 3,
        "copies_by_node": [0, 1, 1],
        "actions": [],
        "children": [],
        "solved_copies": 0
    },
    {
        "id_python": 91,
        "ts": 3,
        "copies_by_node": [1, 0, 1],
        "actions": [],
        "children": [],
        "solved_copies": 0
    },
    {
        "id_python": 26,
        "ts": 0,
        "copies_by_node": [2, 2, 2],
        "actions": [],
        "children": [],
        "solved_copies": 0
    }
]
